…
## Exercise

```r
find.package('readxl')
library(readxl)
data_file = file.choose()
student_marks = readxl(data_file)
student_marks
```

```bash
# A tibble: 100 × 5
   RollNo Maths History Physics  Arts
    <dbl> <dbl>   <dbl>   <dbl> <dbl>
 1      1    47       9      57    51
 2      2    21      78      25    62
 3      3    70      45      80    28
 4      4    66      42      68    22
 5      5     7      35      12    87
 6      6    69      29      77    14
 7      7    32      74      34    48
 8      8    73       3      81    20
 9      9    62      80      71    24
10     10    68      41      78    14
# ℹ 90 more rows
# ℹ Use `print(n = ...)` to see more rows
```
…
